{"failedCount":0,"prefixedPath":"classpath:requests1\/assertions.feature","packageQualifiedName":"requests1.assertions","loopIndex":-1,"relativePath":"requests1\/assertions.feature","scenarioResults":[{"sectionIndex":0,"stepResults":[{"result":{"nanos":1122900,"millis":1.1229,"status":"passed"},"step":{"background":true,"line":4,"prefix":"Given","index":0,"text":"url baseUrl"},"stepLog":"14:52:08.573 karate.env system property was: null \n"},{"result":{"nanos":11569900,"millis":11.5699,"status":"passed"},"step":{"line":7,"prefix":"And","index":0,"text":"param page = 2"}},{"result":{"nanos":786578500,"millis":786.5785,"status":"passed"},"step":{"line":8,"prefix":"When","index":1,"text":"method get"},"stepLog":"14:52:09.029 request:\n1 > GET https:\/\/reqres.in\/api\/users?page=2\n1 > Host: reqres.in\n1 > Connection: Keep-Alive\n1 > User-Agent: Apache-HttpClient\/4.5.14 (Java\/17.0.5)\n1 > Accept-Encoding: gzip,deflate\n\n\n14:52:09.429 response time in milliseconds: 395\n1 < 200\n1 < Date: Thu, 22 Jun 2023 09:23:05 GMT\n1 < Content-Type: application\/json; charset=utf-8\n1 < Transfer-Encoding: chunked\n1 < Connection: keep-alive\n1 < X-Powered-By: Express\n1 < Access-Control-Allow-Origin: *\n1 < Etag: W\/\"406-ut0vzoCuidvyMf8arZpMpJ6ZRDw\"\n1 < Via: 1.1 vegur\n1 < Cache-Control: max-age=14400\n1 < CF-Cache-Status: HIT\n1 < Age: 3182\n1 < Report-To: {\"endpoints\":[{\"url\":\"https:\\\/\\\/a.nel.cloudflare.com\\\/report\\\/v3?s=yCZ4slwidorNx%2BiPqGZNToJ6L58qlz2qnJD%2BhqzMFTeJJbxzKXLCf9UVAYoNpSiCKir0cwPilqq7F9%2B3YqDMt3ER3XCynUC8b84wiyA336Kcmeg5oUyFuBXf7w%3D%3D\"}],\"group\":\"cf-nel\",\"max_age\":604800}\n1 < NEL: {\"success_fraction\":0,\"report_to\":\"cf-nel\",\"max_age\":604800}\n1 < Vary: Accept-Encoding\n1 < Server: cloudflare\n1 < CF-RAY: 7db36e35c93a8f95-KNU\n{\"page\":2,\"per_page\":6,\"total\":12,\"total_pages\":2,\"data\":[{\"id\":7,\"email\":\"michael.lawson@reqres.in\",\"first_name\":\"Michael\",\"last_name\":\"Lawson\",\"avatar\":\"https:\/\/reqres.in\/img\/faces\/7-image.jpg\"},{\"id\":8,\"email\":\"lindsay.ferguson@reqres.in\",\"first_name\":\"Lindsay\",\"last_name\":\"Ferguson\",\"avatar\":\"https:\/\/reqres.in\/img\/faces\/8-image.jpg\"},{\"id\":9,\"email\":\"tobias.funke@reqres.in\",\"first_name\":\"Tobias\",\"last_name\":\"Funke\",\"avatar\":\"https:\/\/reqres.in\/img\/faces\/9-image.jpg\"},{\"id\":10,\"email\":\"byron.fields@reqres.in\",\"first_name\":\"Byron\",\"last_name\":\"Fields\",\"avatar\":\"https:\/\/reqres.in\/img\/faces\/10-image.jpg\"},{\"id\":11,\"email\":\"george.edwards@reqres.in\",\"first_name\":\"George\",\"last_name\":\"Edwards\",\"avatar\":\"https:\/\/reqres.in\/img\/faces\/11-image.jpg\"},{\"id\":12,\"email\":\"rachel.howell@reqres.in\",\"first_name\":\"Rachel\",\"last_name\":\"Howell\",\"avatar\":\"https:\/\/reqres.in\/img\/faces\/12-image.jpg\"}],\"support\":{\"url\":\"https:\/\/reqres.in\/#support-heading\",\"text\":\"To keep ReqRes free, contributions towards server costs are appreciated!\"}}\n\n"},{"result":{"nanos":26900,"millis":0.0269,"status":"passed"},"step":{"line":9,"prefix":"Then","index":2,"text":"status 200"}},{"result":{"nanos":6846700,"millis":6.8467,"status":"passed"},"step":{"line":10,"prefix":"And","index":3,"text":"print response"},"stepLog":"14:52:09.438 [print] {\n  \"page\": 2,\n  \"per_page\": 6,\n  \"total\": 12,\n  \"total_pages\": 2,\n  \"data\": [\n    {\n      \"id\": 7,\n      \"email\": \"michael.lawson@reqres.in\",\n      \"first_name\": \"Michael\",\n      \"last_name\": \"Lawson\",\n      \"avatar\": \"https:\/\/reqres.in\/img\/faces\/7-image.jpg\"\n    },\n    {\n      \"id\": 8,\n      \"email\": \"lindsay.ferguson@reqres.in\",\n      \"first_name\": \"Lindsay\",\n      \"last_name\": \"Ferguson\",\n      \"avatar\": \"https:\/\/reqres.in\/img\/faces\/8-image.jpg\"\n    },\n    {\n      \"id\": 9,\n      \"email\": \"tobias.funke@reqres.in\",\n      \"first_name\": \"Tobias\",\n      \"last_name\": \"Funke\",\n      \"avatar\": \"https:\/\/reqres.in\/img\/faces\/9-image.jpg\"\n    },\n    {\n      \"id\": 10,\n      \"email\": \"byron.fields@reqres.in\",\n      \"first_name\": \"Byron\",\n      \"last_name\": \"Fields\",\n      \"avatar\": \"https:\/\/reqres.in\/img\/faces\/10-image.jpg\"\n    },\n    {\n      \"id\": 11,\n      \"email\": \"george.edwards@reqres.in\",\n      \"first_name\": \"George\",\n      \"last_name\": \"Edwards\",\n      \"avatar\": \"https:\/\/reqres.in\/img\/faces\/11-image.jpg\"\n    },\n    {\n      \"id\": 12,\n      \"email\": \"rachel.howell@reqres.in\",\n      \"first_name\": \"Rachel\",\n      \"last_name\": \"Howell\",\n      \"avatar\": \"https:\/\/reqres.in\/img\/faces\/12-image.jpg\"\n    }\n  ],\n  \"support\": {\n    \"url\": \"https:\/\/reqres.in\/#support-heading\",\n    \"text\": \"To keep ReqRes free, contributions towards server costs are appreciated!\"\n  }\n}\n \n"},{"result":{"nanos":12384600,"millis":12.3846,"status":"passed"},"step":{"line":11,"prefix":"And","index":4,"text":"match response.per_page == 6"}},{"result":{"nanos":3957000,"millis":3.957,"status":"passed"},"step":{"line":12,"prefix":"And","index":5,"text":"match response.data == '#[6]'"}},{"result":{"nanos":2429500,"millis":2.4295,"status":"passed"},"step":{"line":13,"prefix":"And","index":6,"text":"match response.data[*].id contains [7, 8, 9]"}},{"result":{"nanos":539600,"millis":0.5396,"status":"passed"},"step":{"line":14,"prefix":"And","index":7,"text":"match response.data[*].id contains any [5, 6, 7]"}},{"result":{"nanos":1153500,"millis":1.1535,"status":"passed"},"step":{"line":15,"prefix":"And","index":8,"text":"match response.data[*].first_name contains 'Rachel'"}},{"result":{"nanos":2793900,"millis":2.7939,"status":"passed"},"step":{"line":16,"prefix":"And","index":9,"text":"match response..last_name contains 'Ferguson'"}}],"executorName":"pool-1-thread-1","line":6,"name":"Assertions","description":"","durationMillis":829.403,"startTime":1687425728234,"failed":false,"refId":"[1:6]","endTime":1687425729463,"exampleIndex":-1}],"callDepth":0,"name":"assertions","description":"","resultDate":"2023-06-22 02:52:09 PM","durationMillis":829.403,"passedCount":1}